{
  "AppId": "9c94d1a6-54fd-4090-9741-02040ee6696f",
  "ClientSecret": "z_m6R78mm2dBl:wW:Rjo.e9EN3o.f5z2",
  "TenantId": "1a47bbcc-0b71-4fcf-8319-de59f600a5a7",
  "CosmosEndpoint": "",
  "CosmosPrimaryKey": "",
  "CosmosDatabaseId": "",
  "CosmosContainerId": "",
  "DefaultLimit": "20",
  "TimeoutValue": "10",
  "RetryCount": "3",
  "RetryDelay": "2"
}